{
  "name": "Evercam - APIs for Cameras",
  "description": "Developer Platform for CCTV, IP Cameras, NVR, DVRs and Encoders",
  "url": "https://raw.githubusercontent.com/evercam/resources/master/apis3.json",
  "image": "http://www.evercam.io/img/logo.png",
  "specificationVersion": "0.14",
  "apis": [
    {
      "name": "Public Cameras",
      "description": "Returns a list of public cameras",
      "baseURL": "https://api.evercam.io/v1/",
      "humanURL": "http://www.evercam.io",
      "tags": [
        "cameras",
        "cctv",
        "IP Cameras",
        "NVR",
        "Streaming",
        ""
      ],
      "properties": [
        {
          "type": "Swagger",
          "url": "https://api.evercam.io/v1/swagger.json"
        }
      ],
      "contact": [
        {
          "FN": "Marco Herbst",
          "email": "marco@evercam.io",
          "organizationName": "Evercam",
          "adr": "28 Sir John Rogerson's Quay, Dublin 2, Ireland",
          "tel": "+353861960451",
          "X-twitter": "@marcoherbst",
          "X-github": "https://github.com/evercam/",
          "photo": "https://avatars2.githubusercontent.com/u/5648894?v=3&s=460",
          "url": "https://www.marcoherbst.com"
        }
      ]
    }
  ],
  "maintainers": [
    {
      "FN": "Marco Herbst"
    }
  ],
  "tags": [],
  "include": [],
  "created": "2014-11-24",
  "modified": "2014-11-24"
}
